Setting up your system for Mac users
…
<img src="setting-up-system-mac_files/figure-html/unnamed-chunk-6-1.png" width="55%" style="display: block; margin: auto;" />

---

## tibble

```r
mpg
```

```
## # A tibble: 234 x 11
##   manufacturer model displ  year   cyl trans drv     cty   hwy
##   <chr>        <chr> <dbl> <int> <int> <chr> <chr> <int> <int>
## 1 audi         a4      1.8  1999     4 auto… f        18    29
## 2 audi         a4      1.8  1999     4 manu… f        21    29
## 3 audi         a4      2    2008     4 manu… f        20    31
## 4 audi         a4      2    2008     4 auto… f        21    30
## 5 audi         a4      2.8  1999     6 auto… f        16    26
## 6 audi         a4      2.8  1999     6 manu… f        18    26
## # … with 228 more rows, and 2 more variables: fl <chr>,
## #   class <chr>
```
…
